<?xml version="1.0" encoding="utf-8" standalone="no"?>
<!DOCTYPE svg PUBLIC "-//W3C//DTD SVG 1.1//EN"
  "http://www.w3.org/Graphics/SVG/1.1/DTD/svg11.dtd">
<svg xmlns:xlink="http://www.w3.org/1999/xlink" width="576pt" height="576pt" viewBox="0 0 576 576" xmlns="http://www.w3.org/2000/svg" version="1.1">
 <metadata>
  <rdf:RDF xmlns:dc="http://purl.org/dc/elements/1.1/" xmlns:cc="http://creativecommons.org/ns#" xmlns:rdf="http://www.w3.org/1999/02/22-rdf-syntax-ns#">
   <cc:Work>
    <dc:type rdf:resource="http://purl.org/dc/dcmitype/StillImage"/>
    <dc:date>2022-01-20T01:43:35.502699</dc:date>
    <dc:format>image/svg+xml</dc:format>
    <dc:creator>
     <cc:Agent>
      <dc:title>Matplotlib v3.5.0, https://matplotlib.org/</dc:title>
     </cc:Agent>
    </dc:creator>
   </cc:Work>
  </rdf:RDF>
 </metadata>
 <defs>
  <style type="text/css">*{stroke-linejoin: round; stroke-linecap: butt}</style>
 </defs>
 <g id="figure_1">
  <g id="patch_1">
   <path d="M 0 576 
L 576 576 
L 576 0 
L 0 0 
z
" style="fill: #ffffff"/>
  </g>
  <g id="axes_1">
   <g id="patch_2">
    <path d="M 429.12 286.56 
C 429.12 263.111716 424.501199 239.891436 415.527929 218.228046 
C 406.554659 196.564656 393.401428 176.879454 376.820987 160.299013 
C 360.240546 143.718572 340.555344 130.565341 318.891954 121.592071 
C 297.228564 112.618801 274.008284 108 250.56 108 
C 227.111716 108 203.891436 112.618801 182.228046 121.592071 
C 160.564656 130.565341 140.879454 143.718572 124.299013 160.299013 
C 107.718572 176.879454 94.565341 196.564656 85.592071 218.228046 
C 76.618801 239.891436 72 263.111716 72 286.56 
C 72 310.008284 76.618801 333.228564 85.592071 354.891954 
C 94.565341 376.555344 107.718572 396.240546 124.299013 412.820987 
C 140.879454 429.401428 160.564656 442.554659 182.228046 451.527929 
C 203.891436 460.501199 227.111716 465.12 250.56 465.12 
C 274.008284 465.12 297.228564 460.501199 318.891954 451.527929 
C 340.555344 442.554659 360.240546 429.401428 376.820987 412.820987 
C 393.401428 396.240546 406.554659 376.555344 415.527929 354.891954 
C 424.501199 333.228564 429.12 310.008284 429.12 286.56 
M 250.56 286.56 
C 250.56 286.56 250.56 286.56 250.56 286.56 
C 250.56 286.56 250.56 286.56 250.56 286.56 
C 250.56 286.56 250.56 286.56 250.56 286.56 
C 250.56 286.56 250.56 286.56 250.56 286.56 
C 250.56 286.56 250.56 286.56 250.56 286.56 
C 250.56 286.56 250.56 286.56 250.56 286.56 
C 250.56 286.56 250.56 286.56 250.56 286.56 
C 250.56 286.56 250.56 286.56 250.56 286.56 
C 250.56 286.56 250.56 286.56 250.56 286.56 
C 250.56 286.56 250.56 286.56 250.56 286.56 
C 250.56 286.56 250.56 286.56 250.56 286.56 
C 250.56 286.56 250.56 286.56 250.56 286.56 
C 250.56 286.56 250.56 286.56 250.56 286.56 
C 250.56 286.56 250.56 286.56 250.56 286.56 
C 250.56 286.56 250.56 286.56 250.56 286.56 
C 250.56 286.56 250.56 286.56 250.56 286.56 
M 429.12 286.56 
z
" style="fill: #ffffff"/>
   </g>
   <g id="matplotlib.axis_1"/>
   <g id="matplotlib.axis_2"/>
   <g id="patch_3">
    <path d="M 138.983328 288.841721 
C 194.771664 287.70086 286.359536 243.757743 322.159072 200.955486 
" clip-path="url(#pf01a87eace)" style="fill: none; stroke: #ccdff1; stroke-width: 3; stroke-linejoin: miter"/>
   </g>
   <g id="patch_4">
    <path d="M 139.214924 294.098831 
C 194.887462 290.329416 232.868031 233.638981 215.176062 180.717962 
" clip-path="url(#pf01a87eace)" style="fill: none; stroke: #ccdff1; stroke-width: 3; stroke-linejoin: miter"/>
   </g>
   <g id="patch_5">
    <path d="M 198.970676 385.520101 
C 224.765338 336.040051 305.819277 278.810656 361.078553 271.061311 
" clip-path="url(#pf01a87eace)" style="fill: none; stroke: #ccdff1; stroke-width: 3; stroke-linejoin: miter"/>
   </g>
   <g id="patch_6">
    <path d="M 196.12829 383.985607 
C 223.344145 335.272804 274.136078 235.985218 297.712156 185.410436 
" clip-path="url(#pf01a87eace)" style="fill: none; stroke: #ccdff1; stroke-width: 3; stroke-linejoin: miter"/>
   </g>
   <g id="patch_7">
    <path d="M 193.221819 382.303893 
C 221.89091 334.431946 217.243588 241.797776 183.927176 197.035552 
" clip-path="url(#pf01a87eace)" style="fill: none; stroke: #ccdff1; stroke-width: 3; stroke-linejoin: miter"/>
   </g>
   <g id="patch_8">
    <path d="M 312.158537 379.62009 
C 281.359268 333.090045 305.730401 278.201359 360.900801 269.842717 
" clip-path="url(#pf01a87eace)" style="fill: none; stroke: #ccdff1; stroke-width: 3; stroke-linejoin: miter"/>
   </g>
   <g id="patch_9">
    <path d="M 304.454356 384.283889 
C 277.507178 335.421944 275.379451 236.583657 300.198901 186.607314 
" clip-path="url(#pf01a87eace)" style="fill: none; stroke: #ccdff1; stroke-width: 3; stroke-linejoin: miter"/>
   </g>
   <g id="patch_10">
    <path d="M 314.093638 378.30986 
C 282.326819 332.43493 223.050771 238.012268 195.541542 189.464535 
" clip-path="url(#pf01a87eace)" style="fill: none; stroke: #ccdff1; stroke-width: 3; stroke-linejoin: miter"/>
   </g>
   <g id="patch_11">
    <path d="M 139.485793 297.380373 
C 195.022896 291.970186 306.263716 283.283419 361.967433 280.006837 
" clip-path="url(#pf01a87eace)" style="fill: none; stroke: #caddf0; stroke-width: 3; stroke-linejoin: miter"/>
   </g>
   <g id="patch_12">
    <path d="M 305.176184 383.882312 
C 277.868092 335.221156 220.75108 333.73063 190.942161 380.901259 
" clip-path="url(#pf01a87eace)" style="fill: none; stroke: #caddf0; stroke-width: 3; stroke-linejoin: miter"/>
   </g>
   <g id="patch_13">
    <path d="M 191.833946 191.661051 
C 221.196973 239.110525 277.74896 237.83218 304.93792 189.10436 
" clip-path="url(#pf01a87eace)" style="fill: none; stroke: #c1d9ed; stroke-width: 3; stroke-linejoin: miter"/>
   </g>
   <g id="patch_14">
    <path d="M 306.36 383.208435 
C 278.46 334.884218 194.798912 284.476468 139.037825 282.392937 
" clip-path="url(#pf01a87eace)" style="fill: none; stroke: #abd0e6; stroke-width: 3; stroke-linejoin: miter"/>
   </g>
   <g id="patch_15">
    <path d="M 194.76 189.911565 
C 222.66 238.235782 306.299514 283.962577 362.039028 281.365155 
" clip-path="url(#pf01a87eace)" style="fill: none; stroke: #7db8da; stroke-width: 3; stroke-linejoin: miter"/>
   </g>
   <g id="patch_16">
    <path d="M 194.76 383.208435 
C 222.66 334.884218 194.76 286.56 138.96 286.56 
" clip-path="url(#pf01a87eace)" style="fill: none; stroke: #79b5d9; stroke-width: 3; stroke-linejoin: miter"/>
   </g>
   <g id="patch_17">
    <path d="M 306.36 189.911565 
C 278.46 238.235782 306.36 286.56 362.16 286.56 
" clip-path="url(#pf01a87eace)" style="fill: none; stroke: #08306b; stroke-width: 3; stroke-linejoin: miter"/>
   </g>
   <g id="patch_18">
    <path d="M 337.543592 336.78 
C 346.358387 321.512327 351 304.18959 351 286.56 
C 351 268.93041 346.358387 251.607673 337.543592 236.34 
L 347.208435 230.76 
C 357.002652 247.724081 362.16 266.971567 362.16 286.56 
C 362.16 306.148433 357.002652 325.395919 347.208435 342.36 
z
" clip-path="url(#pf01a87eace)" style="fill: #9e0142; stroke: #ffffff; stroke-width: 5; stroke-linejoin: miter"/>
   </g>
   <g id="patch_19">
    <path d="M 337.543592 236.34 
C 328.728797 221.072327 316.047673 208.391203 300.78 199.576408 
C 285.512327 190.761613 268.18959 186.12 250.56 186.12 
L 250.56 174.96 
C 270.148433 174.96 289.395919 180.117348 306.36 189.911565 
C 323.324081 199.705782 337.414218 213.795919 347.208435 230.76 
z
" clip-path="url(#pf01a87eace)" style="fill: #e95c47; stroke: #ffffff; stroke-width: 5; stroke-linejoin: miter"/>
   </g>
   <g id="patch_20">
    <path d="M 250.56 186.12 
C 232.93041 186.12 215.607673 190.761613 200.34 199.576408 
C 185.072327 208.391203 172.391203 221.072327 163.576408 236.34 
L 153.911565 230.76 
C 163.705782 213.795919 177.795919 199.705782 194.76 189.911565 
C 211.724081 180.117348 230.971567 174.96 250.56 174.96 
z
" clip-path="url(#pf01a87eace)" style="fill: #fdbf6f; stroke: #ffffff; stroke-width: 5; stroke-linejoin: miter"/>
   </g>
   <g id="patch_21">
    <path d="M 163.576408 236.34 
C 154.761613 251.607673 150.12 268.93041 150.12 286.56 
C 150.12 304.18959 154.761613 321.512327 163.576408 336.78 
L 153.911565 342.36 
C 144.117348 325.395919 138.96 306.148433 138.96 286.56 
C 138.96 266.971567 144.117348 247.724081 153.911565 230.76 
z
" clip-path="url(#pf01a87eace)" style="fill: #ffffbe; stroke: #ffffff; stroke-width: 5; stroke-linejoin: miter"/>
   </g>
   <g id="patch_22">
    <path d="M 163.576408 336.78 
C 172.391203 352.047673 185.072327 364.728797 200.34 373.543592 
C 215.607673 382.358387 232.93041 387 250.56 387 
L 250.56 398.16 
C 230.971567 398.16 211.724081 393.002652 194.76 383.208435 
C 177.795919 373.414218 163.705782 359.324081 153.911565 342.36 
z
" clip-path="url(#pf01a87eace)" style="fill: #bfe5a0; stroke: #ffffff; stroke-width: 5; stroke-linejoin: miter"/>
   </g>
   <g id="patch_23">
    <path d="M 250.56 387 
C 268.18959 387 285.512327 382.358387 300.78 373.543592 
C 316.047673 364.728797 328.728797 352.047673 337.543592 336.78 
L 347.208435 342.36 
C 337.414218 359.324081 323.324081 373.414218 306.36 383.208435 
C 289.395919 393.002652 270.148433 398.16 250.56 398.16 
z
" clip-path="url(#pf01a87eace)" style="fill: #54aead; stroke: #ffffff; stroke-width: 5; stroke-linejoin: miter"/>
   </g>
   <g id="text_1">
    <!-- A549 (sleuth) -->
    <g transform="translate(414.20275 284.49)rotate(-180)scale(0.08 -0.08)">
     <defs>
      <path id="ArialMT-41" d="M -9 0 
L 1750 4581 
L 2403 4581 
L 4278 0 
L 3588 0 
L 3053 1388 
L 1138 1388 
L 634 0 
L -9 0 
z
M 1313 1881 
L 2866 1881 
L 2388 3150 
Q 2169 3728 2063 4100 
Q 1975 3659 1816 3225 
L 1313 1881 
z
" transform="scale(0.015625)"/>
      <path id="ArialMT-35" d="M 266 1200 
L 856 1250 
Q 922 819 1161 601 
Q 1400 384 1738 384 
Q 2144 384 2425 690 
Q 2706 997 2706 1503 
Q 2706 1984 2436 2262 
Q 2166 2541 1728 2541 
Q 1456 2541 1237 2417 
Q 1019 2294 894 2097 
L 366 2166 
L 809 4519 
L 3088 4519 
L 3088 3981 
L 1259 3981 
L 1013 2750 
Q 1425 3038 1878 3038 
Q 2478 3038 2890 2622 
Q 3303 2206 3303 1553 
Q 3303 931 2941 478 
Q 2500 -78 1738 -78 
Q 1113 -78 717 272 
Q 322 622 266 1200 
z
" transform="scale(0.015625)"/>
      <path id="ArialMT-34" d="M 2069 0 
L 2069 1097 
L 81 1097 
L 81 1613 
L 2172 4581 
L 2631 4581 
L 2631 1613 
L 3250 1613 
L 3250 1097 
L 2631 1097 
L 2631 0 
L 2069 0 
z
M 2069 1613 
L 2069 3678 
L 634 1613 
L 2069 1613 
z
" transform="scale(0.015625)"/>
      <path id="ArialMT-39" d="M 350 1059 
L 891 1109 
Q 959 728 1153 556 
Q 1347 384 1650 384 
Q 1909 384 2104 503 
Q 2300 622 2425 820 
Q 2550 1019 2634 1356 
Q 2719 1694 2719 2044 
Q 2719 2081 2716 2156 
Q 2547 1888 2255 1720 
Q 1963 1553 1622 1553 
Q 1053 1553 659 1965 
Q 266 2378 266 3053 
Q 266 3750 677 4175 
Q 1088 4600 1706 4600 
Q 2153 4600 2523 4359 
Q 2894 4119 3086 3673 
Q 3278 3228 3278 2384 
Q 3278 1506 3087 986 
Q 2897 466 2520 194 
Q 2144 -78 1638 -78 
Q 1100 -78 759 220 
Q 419 519 350 1059 
z
M 2653 3081 
Q 2653 3566 2395 3850 
Q 2138 4134 1775 4134 
Q 1400 4134 1122 3828 
Q 844 3522 844 3034 
Q 844 2597 1108 2323 
Q 1372 2050 1759 2050 
Q 2150 2050 2401 2323 
Q 2653 2597 2653 3081 
z
" transform="scale(0.015625)"/>
      <path id="ArialMT-20" transform="scale(0.015625)"/>
      <path id="ArialMT-28" d="M 1497 -1347 
Q 1031 -759 709 28 
Q 388 816 388 1659 
Q 388 2403 628 3084 
Q 909 3875 1497 4659 
L 1900 4659 
Q 1522 4009 1400 3731 
Q 1209 3300 1100 2831 
Q 966 2247 966 1656 
Q 966 153 1900 -1347 
L 1497 -1347 
z
" transform="scale(0.015625)"/>
      <path id="ArialMT-73" d="M 197 991 
L 753 1078 
Q 800 744 1014 566 
Q 1228 388 1613 388 
Q 2000 388 2187 545 
Q 2375 703 2375 916 
Q 2375 1106 2209 1216 
Q 2094 1291 1634 1406 
Q 1016 1563 777 1677 
Q 538 1791 414 1992 
Q 291 2194 291 2438 
Q 291 2659 392 2848 
Q 494 3038 669 3163 
Q 800 3259 1026 3326 
Q 1253 3394 1513 3394 
Q 1903 3394 2198 3281 
Q 2494 3169 2634 2976 
Q 2775 2784 2828 2463 
L 2278 2388 
Q 2241 2644 2061 2787 
Q 1881 2931 1553 2931 
Q 1166 2931 1000 2803 
Q 834 2675 834 2503 
Q 834 2394 903 2306 
Q 972 2216 1119 2156 
Q 1203 2125 1616 2013 
Q 2213 1853 2448 1751 
Q 2684 1650 2818 1456 
Q 2953 1263 2953 975 
Q 2953 694 2789 445 
Q 2625 197 2315 61 
Q 2006 -75 1616 -75 
Q 969 -75 630 194 
Q 291 463 197 991 
z
" transform="scale(0.015625)"/>
      <path id="ArialMT-6c" d="M 409 0 
L 409 4581 
L 972 4581 
L 972 0 
L 409 0 
z
" transform="scale(0.015625)"/>
      <path id="ArialMT-65" d="M 2694 1069 
L 3275 997 
Q 3138 488 2766 206 
Q 2394 -75 1816 -75 
Q 1088 -75 661 373 
Q 234 822 234 1631 
Q 234 2469 665 2931 
Q 1097 3394 1784 3394 
Q 2450 3394 2872 2941 
Q 3294 2488 3294 1666 
Q 3294 1616 3291 1516 
L 816 1516 
Q 847 969 1125 678 
Q 1403 388 1819 388 
Q 2128 388 2347 550 
Q 2566 713 2694 1069 
z
M 847 1978 
L 2700 1978 
Q 2663 2397 2488 2606 
Q 2219 2931 1791 2931 
Q 1403 2931 1139 2672 
Q 875 2413 847 1978 
z
" transform="scale(0.015625)"/>
      <path id="ArialMT-75" d="M 2597 0 
L 2597 488 
Q 2209 -75 1544 -75 
Q 1250 -75 995 37 
Q 741 150 617 320 
Q 494 491 444 738 
Q 409 903 409 1263 
L 409 3319 
L 972 3319 
L 972 1478 
Q 972 1038 1006 884 
Q 1059 663 1231 536 
Q 1403 409 1656 409 
Q 1909 409 2131 539 
Q 2353 669 2445 892 
Q 2538 1116 2538 1541 
L 2538 3319 
L 3100 3319 
L 3100 0 
L 2597 0 
z
" transform="scale(0.015625)"/>
      <path id="ArialMT-74" d="M 1650 503 
L 1731 6 
Q 1494 -44 1306 -44 
Q 1000 -44 831 53 
Q 663 150 594 308 
Q 525 466 525 972 
L 525 2881 
L 113 2881 
L 113 3319 
L 525 3319 
L 525 4141 
L 1084 4478 
L 1084 3319 
L 1650 3319 
L 1650 2881 
L 1084 2881 
L 1084 941 
Q 1084 700 1114 631 
Q 1144 563 1211 522 
Q 1278 481 1403 481 
Q 1497 481 1650 503 
z
" transform="scale(0.015625)"/>
      <path id="ArialMT-68" d="M 422 0 
L 422 4581 
L 984 4581 
L 984 2938 
Q 1378 3394 1978 3394 
Q 2347 3394 2619 3248 
Q 2891 3103 3008 2847 
Q 3125 2591 3125 2103 
L 3125 0 
L 2563 0 
L 2563 2103 
Q 2563 2525 2380 2717 
Q 2197 2909 1863 2909 
Q 1613 2909 1392 2779 
Q 1172 2650 1078 2428 
Q 984 2206 984 1816 
L 984 0 
L 422 0 
z
" transform="scale(0.015625)"/>
      <path id="ArialMT-29" d="M 791 -1347 
L 388 -1347 
Q 1322 153 1322 1656 
Q 1322 2244 1188 2822 
Q 1081 3291 891 3722 
Q 769 4003 388 4659 
L 791 4659 
Q 1378 3875 1659 3084 
Q 1900 2403 1900 1659 
Q 1900 816 1576 28 
Q 1253 -759 791 -1347 
z
" transform="scale(0.015625)"/>
     </defs>
     <use xlink:href="#ArialMT-41"/>
     <use xlink:href="#ArialMT-35" x="66.699219"/>
     <use xlink:href="#ArialMT-34" x="122.314453"/>
     <use xlink:href="#ArialMT-39" x="177.929688"/>
     <use xlink:href="#ArialMT-20" x="233.544922"/>
     <use xlink:href="#ArialMT-28" x="261.328125"/>
     <use xlink:href="#ArialMT-73" x="294.628906"/>
     <use xlink:href="#ArialMT-6c" x="344.628906"/>
     <use xlink:href="#ArialMT-65" x="366.845703"/>
     <use xlink:href="#ArialMT-75" x="422.460938"/>
     <use xlink:href="#ArialMT-74" x="478.076172"/>
     <use xlink:href="#ArialMT-68" x="505.859375"/>
     <use xlink:href="#ArialMT-29" x="561.474609"/>
    </g>
   </g>
   <g id="text_2">
    <!-- H358 (sleuth) -->
    <g transform="translate(330.809327 143.424088)rotate(-240)scale(0.08 -0.08)">
     <defs>
      <path id="ArialMT-48" d="M 513 0 
L 513 4581 
L 1119 4581 
L 1119 2700 
L 3500 2700 
L 3500 4581 
L 4106 4581 
L 4106 0 
L 3500 0 
L 3500 2159 
L 1119 2159 
L 1119 0 
L 513 0 
z
" transform="scale(0.015625)"/>
      <path id="ArialMT-33" d="M 269 1209 
L 831 1284 
Q 928 806 1161 595 
Q 1394 384 1728 384 
Q 2125 384 2398 659 
Q 2672 934 2672 1341 
Q 2672 1728 2419 1979 
Q 2166 2231 1775 2231 
Q 1616 2231 1378 2169 
L 1441 2663 
Q 1497 2656 1531 2656 
Q 1891 2656 2178 2843 
Q 2466 3031 2466 3422 
Q 2466 3731 2256 3934 
Q 2047 4138 1716 4138 
Q 1388 4138 1169 3931 
Q 950 3725 888 3313 
L 325 3413 
Q 428 3978 793 4289 
Q 1159 4600 1703 4600 
Q 2078 4600 2393 4439 
Q 2709 4278 2876 4000 
Q 3044 3722 3044 3409 
Q 3044 3113 2884 2869 
Q 2725 2625 2413 2481 
Q 2819 2388 3044 2092 
Q 3269 1797 3269 1353 
Q 3269 753 2831 336 
Q 2394 -81 1725 -81 
Q 1122 -81 723 278 
Q 325 638 269 1209 
z
" transform="scale(0.015625)"/>
      <path id="ArialMT-38" d="M 1131 2484 
Q 781 2613 612 2850 
Q 444 3088 444 3419 
Q 444 3919 803 4259 
Q 1163 4600 1759 4600 
Q 2359 4600 2725 4251 
Q 3091 3903 3091 3403 
Q 3091 3084 2923 2848 
Q 2756 2613 2416 2484 
Q 2838 2347 3058 2040 
Q 3278 1734 3278 1309 
Q 3278 722 2862 322 
Q 2447 -78 1769 -78 
Q 1091 -78 675 323 
Q 259 725 259 1325 
Q 259 1772 486 2073 
Q 713 2375 1131 2484 
z
M 1019 3438 
Q 1019 3113 1228 2906 
Q 1438 2700 1772 2700 
Q 2097 2700 2305 2904 
Q 2513 3109 2513 3406 
Q 2513 3716 2298 3927 
Q 2084 4138 1766 4138 
Q 1444 4138 1231 3931 
Q 1019 3725 1019 3438 
z
M 838 1322 
Q 838 1081 952 856 
Q 1066 631 1291 507 
Q 1516 384 1775 384 
Q 2178 384 2440 643 
Q 2703 903 2703 1303 
Q 2703 1709 2433 1975 
Q 2163 2241 1756 2241 
Q 1359 2241 1098 1978 
Q 838 1716 838 1322 
z
" transform="scale(0.015625)"/>
     </defs>
     <use xlink:href="#ArialMT-48"/>
     <use xlink:href="#ArialMT-33" x="72.216797"/>
     <use xlink:href="#ArialMT-35" x="127.832031"/>
     <use xlink:href="#ArialMT-38" x="183.447266"/>
     <use xlink:href="#ArialMT-20" x="239.0625"/>
     <use xlink:href="#ArialMT-28" x="266.845703"/>
     <use xlink:href="#ArialMT-73" x="300.146484"/>
     <use xlink:href="#ArialMT-6c" x="350.146484"/>
     <use xlink:href="#ArialMT-65" x="372.363281"/>
     <use xlink:href="#ArialMT-75" x="427.978516"/>
     <use xlink:href="#ArialMT-74" x="483.59375"/>
     <use xlink:href="#ArialMT-68" x="511.376953"/>
     <use xlink:href="#ArialMT-29" x="566.992188"/>
    </g>
   </g>
   <g id="text_3">
    <!-- H838 (sleuth) -->
    <g transform="translate(166.725327 145.494088)rotate(-300)scale(0.08 -0.08)">
     <use xlink:href="#ArialMT-48"/>
     <use xlink:href="#ArialMT-38" x="72.216797"/>
     <use xlink:href="#ArialMT-33" x="127.832031"/>
     <use xlink:href="#ArialMT-38" x="183.447266"/>
     <use xlink:href="#ArialMT-20" x="239.0625"/>
     <use xlink:href="#ArialMT-28" x="266.845703"/>
     <use xlink:href="#ArialMT-73" x="300.146484"/>
     <use xlink:href="#ArialMT-6c" x="350.146484"/>
     <use xlink:href="#ArialMT-65" x="372.363281"/>
     <use xlink:href="#ArialMT-75" x="427.978516"/>
     <use xlink:href="#ArialMT-74" x="483.59375"/>
     <use xlink:href="#ArialMT-68" x="511.376953"/>
     <use xlink:href="#ArialMT-29" x="566.992188"/>
    </g>
   </g>
   <g id="text_4">
    <!-- A549 (DESeq2) -->
    <g transform="translate(78.46725 288.63)scale(0.08 -0.08)">
     <defs>
      <path id="ArialMT-44" d="M 494 0 
L 494 4581 
L 2072 4581 
Q 2606 4581 2888 4516 
Q 3281 4425 3559 4188 
Q 3922 3881 4101 3404 
Q 4281 2928 4281 2316 
Q 4281 1794 4159 1391 
Q 4038 988 3847 723 
Q 3656 459 3429 307 
Q 3203 156 2883 78 
Q 2563 0 2147 0 
L 494 0 
z
M 1100 541 
L 2078 541 
Q 2531 541 2789 625 
Q 3047 709 3200 863 
Q 3416 1078 3536 1442 
Q 3656 1806 3656 2325 
Q 3656 3044 3420 3430 
Q 3184 3816 2847 3947 
Q 2603 4041 2063 4041 
L 1100 4041 
L 1100 541 
z
" transform="scale(0.015625)"/>
      <path id="ArialMT-45" d="M 506 0 
L 506 4581 
L 3819 4581 
L 3819 4041 
L 1113 4041 
L 1113 2638 
L 3647 2638 
L 3647 2100 
L 1113 2100 
L 1113 541 
L 3925 541 
L 3925 0 
L 506 0 
z
" transform="scale(0.015625)"/>
      <path id="ArialMT-53" d="M 288 1472 
L 859 1522 
Q 900 1178 1048 958 
Q 1197 738 1509 602 
Q 1822 466 2213 466 
Q 2559 466 2825 569 
Q 3091 672 3220 851 
Q 3350 1031 3350 1244 
Q 3350 1459 3225 1620 
Q 3100 1781 2813 1891 
Q 2628 1963 1997 2114 
Q 1366 2266 1113 2400 
Q 784 2572 623 2826 
Q 463 3081 463 3397 
Q 463 3744 659 4045 
Q 856 4347 1234 4503 
Q 1613 4659 2075 4659 
Q 2584 4659 2973 4495 
Q 3363 4331 3572 4012 
Q 3781 3694 3797 3291 
L 3216 3247 
Q 3169 3681 2898 3903 
Q 2628 4125 2100 4125 
Q 1550 4125 1298 3923 
Q 1047 3722 1047 3438 
Q 1047 3191 1225 3031 
Q 1400 2872 2139 2705 
Q 2878 2538 3153 2413 
Q 3553 2228 3743 1945 
Q 3934 1663 3934 1294 
Q 3934 928 3725 604 
Q 3516 281 3123 101 
Q 2731 -78 2241 -78 
Q 1619 -78 1198 103 
Q 778 284 539 648 
Q 300 1013 288 1472 
z
" transform="scale(0.015625)"/>
      <path id="ArialMT-71" d="M 2538 -1272 
L 2538 353 
Q 2406 169 2170 47 
Q 1934 -75 1669 -75 
Q 1078 -75 651 397 
Q 225 869 225 1691 
Q 225 2191 398 2587 
Q 572 2984 901 3189 
Q 1231 3394 1625 3394 
Q 2241 3394 2594 2875 
L 2594 3319 
L 3100 3319 
L 3100 -1272 
L 2538 -1272 
z
M 803 1669 
Q 803 1028 1072 708 
Q 1341 388 1716 388 
Q 2075 388 2334 692 
Q 2594 997 2594 1619 
Q 2594 2281 2320 2615 
Q 2047 2950 1678 2950 
Q 1313 2950 1058 2639 
Q 803 2328 803 1669 
z
" transform="scale(0.015625)"/>
      <path id="ArialMT-32" d="M 3222 541 
L 3222 0 
L 194 0 
Q 188 203 259 391 
Q 375 700 629 1000 
Q 884 1300 1366 1694 
Q 2113 2306 2375 2664 
Q 2638 3022 2638 3341 
Q 2638 3675 2398 3904 
Q 2159 4134 1775 4134 
Q 1369 4134 1125 3890 
Q 881 3647 878 3216 
L 300 3275 
Q 359 3922 746 4261 
Q 1134 4600 1788 4600 
Q 2447 4600 2831 4234 
Q 3216 3869 3216 3328 
Q 3216 3053 3103 2787 
Q 2991 2522 2730 2228 
Q 2469 1934 1863 1422 
Q 1356 997 1212 845 
Q 1069 694 975 541 
L 3222 541 
z
" transform="scale(0.015625)"/>
     </defs>
     <use xlink:href="#ArialMT-41"/>
     <use xlink:href="#ArialMT-35" x="66.699219"/>
     <use xlink:href="#ArialMT-34" x="122.314453"/>
     <use xlink:href="#ArialMT-39" x="177.929688"/>
     <use xlink:href="#ArialMT-20" x="233.544922"/>
     <use xlink:href="#ArialMT-28" x="261.328125"/>
     <use xlink:href="#ArialMT-44" x="294.628906"/>
     <use xlink:href="#ArialMT-45" x="366.845703"/>
     <use xlink:href="#ArialMT-53" x="433.544922"/>
     <use xlink:href="#ArialMT-65" x="500.244141"/>
     <use xlink:href="#ArialMT-71" x="555.859375"/>
     <use xlink:href="#ArialMT-32" x="611.474609"/>
     <use xlink:href="#ArialMT-29" x="667.089844"/>
    </g>
   </g>
   <g id="text_5">
    <!-- H358 (DESeq2) -->
    <g transform="translate(166.085673 437.013827)rotate(-60)scale(0.08 -0.08)">
     <use xlink:href="#ArialMT-48"/>
     <use xlink:href="#ArialMT-33" x="72.216797"/>
     <use xlink:href="#ArialMT-35" x="127.832031"/>
     <use xlink:href="#ArialMT-38" x="183.447266"/>
     <use xlink:href="#ArialMT-20" x="239.0625"/>
     <use xlink:href="#ArialMT-28" x="266.845703"/>
     <use xlink:href="#ArialMT-44" x="300.146484"/>
     <use xlink:href="#ArialMT-45" x="372.363281"/>
     <use xlink:href="#ArialMT-53" x="439.0625"/>
     <use xlink:href="#ArialMT-65" x="505.761719"/>
     <use xlink:href="#ArialMT-71" x="561.376953"/>
     <use xlink:href="#ArialMT-32" x="616.992188"/>
     <use xlink:href="#ArialMT-29" x="672.607422"/>
    </g>
   </g>
   <g id="text_6">
    <!-- H838 (DESeq2) -->
    <g transform="translate(306.799327 388.109372)rotate(-300)scale(0.08 -0.08)">
     <use xlink:href="#ArialMT-48"/>
     <use xlink:href="#ArialMT-38" x="72.216797"/>
     <use xlink:href="#ArialMT-33" x="127.832031"/>
     <use xlink:href="#ArialMT-38" x="183.447266"/>
     <use xlink:href="#ArialMT-20" x="239.0625"/>
     <use xlink:href="#ArialMT-28" x="266.845703"/>
     <use xlink:href="#ArialMT-44" x="300.146484"/>
     <use xlink:href="#ArialMT-45" x="372.363281"/>
     <use xlink:href="#ArialMT-53" x="439.0625"/>
     <use xlink:href="#ArialMT-65" x="505.761719"/>
     <use xlink:href="#ArialMT-71" x="561.376953"/>
     <use xlink:href="#ArialMT-32" x="616.992188"/>
     <use xlink:href="#ArialMT-29" x="672.607422"/>
    </g>
   </g>
  </g>
  <g id="axes_2">
   <g id="patch_24">
    <path d="M 432.65664 469.2096 
L 437.00544 469.2096 
L 437.00544 382.2336 
L 432.65664 382.2336 
z
" style="fill: #eaeaf2"/>
   </g>
   <g id="patch_25">
    <path clip-path="url(#pbe40f7f949)" style="fill: #eaeaf2; stroke: #eaeaf2; stroke-width: 0.01; stroke-linejoin: miter"/>
   </g>
   <g id="matplotlib.axis_3">
    <g id="ytick_1">
     <g id="line2d_1">
      <defs>
       <path id="m0f1d59bdff" d="M 0 0 
L 4.8 0 
" style="stroke: #262626"/>
      </defs>
      <g>
       <use xlink:href="#m0f1d59bdff" x="437.00544" y="469.2096" style="fill: #262626; stroke: #262626"/>
      </g>
     </g>
     <g id="text_7">
      <!-- −20 -->
      <g transform="translate(445.30544 472.072725)scale(0.08 -0.08)">
       <defs>
        <path id="ArialMT-2212" d="M 3381 1997 
L 356 1997 
L 356 2522 
L 3381 2522 
L 3381 1997 
z
" transform="scale(0.015625)"/>
        <path id="ArialMT-30" d="M 266 2259 
Q 266 3072 433 3567 
Q 600 4063 929 4331 
Q 1259 4600 1759 4600 
Q 2128 4600 2406 4451 
Q 2684 4303 2865 4023 
Q 3047 3744 3150 3342 
Q 3253 2941 3253 2259 
Q 3253 1453 3087 958 
Q 2922 463 2592 192 
Q 2263 -78 1759 -78 
Q 1097 -78 719 397 
Q 266 969 266 2259 
z
M 844 2259 
Q 844 1131 1108 757 
Q 1372 384 1759 384 
Q 2147 384 2411 759 
Q 2675 1134 2675 2259 
Q 2675 3391 2411 3762 
Q 2147 4134 1753 4134 
Q 1366 4134 1134 3806 
Q 844 3388 844 2259 
z
" transform="scale(0.015625)"/>
       </defs>
       <use xlink:href="#ArialMT-2212"/>
       <use xlink:href="#ArialMT-32" x="58.398438"/>
       <use xlink:href="#ArialMT-30" x="114.013672"/>
      </g>
     </g>
    </g>
    <g id="ytick_2">
     <g id="line2d_2">
      <g>
       <use xlink:href="#m0f1d59bdff" x="437.00544" y="449.8816" style="fill: #262626; stroke: #262626"/>
      </g>
     </g>
     <g id="text_8">
      <!-- 0 -->
      <g transform="translate(445.30544 452.744725)scale(0.08 -0.08)">
       <use xlink:href="#ArialMT-30"/>
      </g>
     </g>
    </g>
    <g id="ytick_3">
     <g id="line2d_3">
      <g>
       <use xlink:href="#m0f1d59bdff" x="437.00544" y="430.5536" style="fill: #262626; stroke: #262626"/>
      </g>
     </g>
     <g id="text_9">
      <!-- 20 -->
      <g transform="translate(445.30544 433.416725)scale(0.08 -0.08)">
       <use xlink:href="#ArialMT-32"/>
       <use xlink:href="#ArialMT-30" x="55.615234"/>
      </g>
     </g>
    </g>
    <g id="ytick_4">
     <g id="line2d_4">
      <g>
       <use xlink:href="#m0f1d59bdff" x="437.00544" y="411.2256" style="fill: #262626; stroke: #262626"/>
      </g>
     </g>
     <g id="text_10">
      <!-- 40 -->
      <g transform="translate(445.30544 414.088725)scale(0.08 -0.08)">
       <use xlink:href="#ArialMT-34"/>
       <use xlink:href="#ArialMT-30" x="55.615234"/>
      </g>
     </g>
    </g>
    <g id="ytick_5">
     <g id="line2d_5">
      <g>
       <use xlink:href="#m0f1d59bdff" x="437.00544" y="391.8976" style="fill: #262626; stroke: #262626"/>
      </g>
     </g>
     <g id="text_11">
      <!-- 60 -->
      <g transform="translate(445.30544 394.760725)scale(0.08 -0.08)">
       <defs>
        <path id="ArialMT-36" d="M 3184 3459 
L 2625 3416 
Q 2550 3747 2413 3897 
Q 2184 4138 1850 4138 
Q 1581 4138 1378 3988 
Q 1113 3794 959 3422 
Q 806 3050 800 2363 
Q 1003 2672 1297 2822 
Q 1591 2972 1913 2972 
Q 2475 2972 2870 2558 
Q 3266 2144 3266 1488 
Q 3266 1056 3080 686 
Q 2894 316 2569 119 
Q 2244 -78 1831 -78 
Q 1128 -78 684 439 
Q 241 956 241 2144 
Q 241 3472 731 4075 
Q 1159 4600 1884 4600 
Q 2425 4600 2770 4297 
Q 3116 3994 3184 3459 
z
M 888 1484 
Q 888 1194 1011 928 
Q 1134 663 1356 523 
Q 1578 384 1822 384 
Q 2178 384 2434 671 
Q 2691 959 2691 1453 
Q 2691 1928 2437 2201 
Q 2184 2475 1800 2475 
Q 1419 2475 1153 2201 
Q 888 1928 888 1484 
z
" transform="scale(0.015625)"/>
       </defs>
       <use xlink:href="#ArialMT-36"/>
       <use xlink:href="#ArialMT-30" x="55.615234"/>
      </g>
     </g>
    </g>
   </g>
   <image xlink:href="data:image/png;base64,
iVBORw0KGgoAAAANSUhEUgAAAAQAAABXCAYAAAAj6+QnAAAAjUlEQVR4nMWSywrDMBADXcj//20uzT56jTUGJYES3yxG2rXwZ/9Wj9PZqsZ0tu6ehVQBlgWhAkI1AwQy/B4vZch9YQm1BEPLEBTUkhfG2imwpAgHBM0AgcW8hWOtBUSkFoQp6IN72MZA8Pm3p/DT2bc8ImxB4YhiRhriL5ZmYy60M2ZhUDisYC1x3+KIH9a89PyZs+BzAAAAAElFTkSuQmCC" id="image87ca6bcfd2" transform="scale(1 -1)translate(0 -87)" x="433" y="-382" width="4" height="87"/>
   <g id="LineCollection_1"/>
   <g id="patch_26">
    <path d="M 432.65664 469.2096 
L 434.83104 469.2096 
L 437.00544 469.2096 
L 437.00544 382.2336 
L 434.83104 382.2336 
L 432.65664 382.2336 
L 432.65664 469.2096 
z
" style="fill: none; stroke: #ffffff; stroke-linejoin: miter; stroke-linecap: square"/>
   </g>
  </g>
 </g>
 <defs>
  <clipPath id="pf01a87eace">
   <path d="M 429.12 286.56 
C 429.12 263.111716 424.501199 239.891436 415.527929 218.228046 
C 406.554659 196.564656 393.401428 176.879454 376.820987 160.299013 
C 360.240546 143.718572 340.555344 130.565341 318.891954 121.592071 
C 297.228564 112.618801 274.008284 108 250.56 108 
C 227.111716 108 203.891436 112.618801 182.228046 121.592071 
C 160.564656 130.565341 140.879454 143.718572 124.299013 160.299013 
C 107.718572 176.879454 94.565341 196.564656 85.592071 218.228046 
C 76.618801 239.891436 72 263.111716 72 286.56 
C 72 310.008284 76.618801 333.228564 85.592071 354.891954 
C 94.565341 376.555344 107.718572 396.240546 124.299013 412.820987 
C 140.879454 429.401428 160.564656 442.554659 182.228046 451.527929 
C 203.891436 460.501199 227.111716 465.12 250.56 465.12 
C 274.008284 465.12 297.228564 460.501199 318.891954 451.527929 
C 340.555344 442.554659 360.240546 429.401428 376.820987 412.820987 
C 393.401428 396.240546 406.554659 376.555344 415.527929 354.891954 
C 424.501199 333.228564 429.12 310.008284 429.12 286.56 
M 250.56 286.56 
C 250.56 286.56 250.56 286.56 250.56 286.56 
C 250.56 286.56 250.56 286.56 250.56 286.56 
C 250.56 286.56 250.56 286.56 250.56 286.56 
C 250.56 286.56 250.56 286.56 250.56 286.56 
C 250.56 286.56 250.56 286.56 250.56 286.56 
C 250.56 286.56 250.56 286.56 250.56 286.56 
C 250.56 286.56 250.56 286.56 250.56 286.56 
C 250.56 286.56 250.56 286.56 250.56 286.56 
C 250.56 286.56 250.56 286.56 250.56 286.56 
C 250.56 286.56 250.56 286.56 250.56 286.56 
C 250.56 286.56 250.56 286.56 250.56 286.56 
C 250.56 286.56 250.56 286.56 250.56 286.56 
C 250.56 286.56 250.56 286.56 250.56 286.56 
C 250.56 286.56 250.56 286.56 250.56 286.56 
C 250.56 286.56 250.56 286.56 250.56 286.56 
C 250.56 286.56 250.56 286.56 250.56 286.56 
M 429.12 286.56 
z
"/>
  </clipPath>
  <clipPath id="pbe40f7f949">
   <rect x="432.65664" y="382.2336" width="4.3488" height="86.976"/>
  </clipPath>
 </defs>
</svg>
