\relax 
\providecommand\hyper@newdestlabel[2]{}
\abx@aux@refcontext{nty/global//global/global}
\providecommand\HyperFirstAtBeginDocument{\AtBeginDocument}
\HyperFirstAtBeginDocument{\ifx\hyper@anchor\@undefined
\global\let\oldcontentsline\contentsline
\gdef\contentsline#1#2#3#4{\oldcontentsline{#1}{#2}{#3}}
\global\let\oldnewlabel\newlabel
\gdef\newlabel#1#2{\newlabelxx{#1}#2}
\gdef\newlabelxx#1#2#3#4#5#6{\oldnewlabel{#1}{{#2}{#3}}}
\AtEndDocument{\ifx\hyper@anchor\@undefined
\let\contentsline\oldcontentsline
\let\newlabel\oldnewlabel
\fi}
\fi}
\global\let\hyper@last\relax 
\gdef\HyperFirstAtBeginDocument#1{#1}
\providecommand\HyField@AuxAddToFields[1]{}
\providecommand\HyField@AuxAddToCoFields[2]{}
\abx@aux@cite{lactate_cancer_review1}
\abx@aux@segm{0}{0}{lactate_cancer_review1}
\abx@aux@segm{0}{0}{lactate_cancer_review1}
\abx@aux@cite{warburg}
\abx@aux@segm{0}{0}{warburg}
\abx@aux@segm{0}{0}{warburg}
\abx@aux@cite{lactate_tumor_inflammation}
\abx@aux@segm{0}{0}{lactate_tumor_inflammation}
\abx@aux@segm{0}{0}{lactate_tumor_inflammation}
\abx@aux@cite{lactate_against_tcells2}
\abx@aux@segm{0}{0}{lactate_against_tcells2}
\abx@aux@segm{0}{0}{lactate_against_tcells2}
\abx@aux@cite{lactate_metastasis}
\abx@aux@segm{0}{0}{lactate_metastasis}
\abx@aux@segm{0}{0}{lactate_metastasis}
\abx@aux@cite{LDH_apoptosis_review}
\abx@aux@segm{0}{0}{LDH_apoptosis_review}
\abx@aux@segm{0}{0}{LDH_apoptosis_review}
\abx@aux@cite{lactate_therapeutics}
\abx@aux@segm{0}{0}{lactate_therapeutics}
\abx@aux@segm{0}{0}{lactate_therapeutics}
\abx@aux@cite{lncrna_cancers1}
\abx@aux@segm{0}{0}{lncrna_cancers1}
\abx@aux@cite{lncrna_cancers2}
\abx@aux@segm{0}{0}{lncrna_cancers2}
\abx@aux@segm{0}{0}{lncrna_cancers1}
\abx@aux@segm{0}{0}{lncrna_cancers2}
\abx@aux@cite{ldhb_exosome_lncrnas}
\abx@aux@segm{0}{0}{ldhb_exosome_lncrnas}
\abx@aux@segm{0}{0}{ldhb_exosome_lncrnas}
\abx@aux@cite{ldhb_malat_lncrna}
\abx@aux@segm{0}{0}{ldhb_malat_lncrna}
\abx@aux@segm{0}{0}{ldhb_exosome_lncrnas}
\abx@aux@segm{0}{0}{ldhb_malat_lncrna}
\abx@aux@segm{0}{0}{ldhb_exosome_lncrnas}
\@writefile{toc}{\boolfalse {citerequest}\boolfalse {citetracker}\boolfalse {pagetracker}\boolfalse {backtracker}\relax }
\@writefile{lof}{\boolfalse {citerequest}\boolfalse {citetracker}\boolfalse {pagetracker}\boolfalse {backtracker}\relax }
\@writefile{lot}{\boolfalse {citerequest}\boolfalse {citetracker}\boolfalse {pagetracker}\boolfalse {backtracker}\relax }
\@writefile{toc}{\defcounter {refsection}{0}\relax }\@writefile{toc}{\contentsline {section}{\numberline {1}Introduction}{1}{section.1}}
\@writefile{toc}{\defcounter {refsection}{0}\relax }\@writefile{toc}{\contentsline {section}{\numberline {2}Methods}{1}{section.2}}
\abx@aux@cite{fastqc}
\abx@aux@segm{0}{0}{fastqc}
\abx@aux@segm{0}{0}{fastqc}
\abx@aux@cite{MULTIQC}
\abx@aux@segm{0}{0}{MULTIQC}
\abx@aux@segm{0}{0}{MULTIQC}
\abx@aux@cite{STAR}
\abx@aux@segm{0}{0}{STAR}
\abx@aux@segm{0}{0}{STAR}
\abx@aux@cite{STRINGTIE}
\abx@aux@segm{0}{0}{STRINGTIE}
\abx@aux@segm{0}{0}{STRINGTIE}
\abx@aux@cite{KALLISTO}
\abx@aux@segm{0}{0}{KALLISTO}
\abx@aux@segm{0}{0}{KALLISTO}
\abx@aux@cite{HTSEQ}
\abx@aux@segm{0}{0}{HTSEQ}
\abx@aux@segm{0}{0}{HTSEQ}
\abx@aux@cite{sleuth}
\abx@aux@segm{0}{0}{sleuth}
\abx@aux@segm{0}{0}{sleuth}
\abx@aux@cite{deseq2}
\abx@aux@segm{0}{0}{deseq2}
\abx@aux@segm{0}{0}{deseq2}
\abx@aux@cite{CPAT}
\abx@aux@segm{0}{0}{CPAT}
\abx@aux@segm{0}{0}{CPAT}
\abx@aux@cite{refTSS}
\abx@aux@segm{0}{0}{refTSS}
\abx@aux@segm{0}{0}{refTSS}
\abx@aux@cite{polyAref}
\abx@aux@segm{0}{0}{polyAref}
\abx@aux@segm{0}{0}{polyAref}
\@writefile{toc}{\defcounter {refsection}{0}\relax }\@writefile{toc}{\contentsline {subsection}{\numberline {2.1}Availability}{2}{subsection.2.1}}
\newlabel{Sec:Availability}{{2.1}{2}{Availability}{subsection.2.1}{}}
\@writefile{toc}{\defcounter {refsection}{0}\relax }\@writefile{toc}{\contentsline {subsection}{\numberline {2.2}Data Quality Assessment}{2}{subsection.2.2}}
\@writefile{toc}{\defcounter {refsection}{0}\relax }\@writefile{toc}{\contentsline {subsection}{\numberline {2.3}Alignment}{2}{subsection.2.3}}
\@writefile{toc}{\defcounter {refsection}{0}\relax }\@writefile{toc}{\contentsline {subsection}{\numberline {2.4}Transcriptome Assembly}{2}{subsection.2.4}}
\@writefile{toc}{\defcounter {refsection}{0}\relax }\@writefile{toc}{\contentsline {subsection}{\numberline {2.5}Quantification}{2}{subsection.2.5}}
\@writefile{toc}{\defcounter {refsection}{0}\relax }\@writefile{toc}{\contentsline {subsection}{\numberline {2.6}Differential Expression Analysis}{2}{subsection.2.6}}
\@writefile{toc}{\defcounter {refsection}{0}\relax }\@writefile{toc}{\contentsline {subsection}{\numberline {2.7}Novel Transcript Identification}{2}{subsection.2.7}}
\@writefile{lof}{\defcounter {refsection}{0}\relax }\@writefile{lof}{\contentsline {figure}{\numberline {1}{\ignorespaces  Summary overview of Reads Quality, Mapping and Assembly. (A) \texttt  {STRINGTIE} assembly overview. On average around 100'000 distinct transcripts were assembled for each biological sample separately with around twice as many in the merged total assembly. Between 12'000 and 15'000 transcripts were not annotated, totalling in some 28'000 potentially novel transcripts in the total merged assembly. (B) Overview of Transcript representation. Around 11\% of transcripts were single exon entries, whereas 89\% were represented by two or more exons. (C) Overview of annotated genes in the assembly. On average 20'000 distinct genes were found with at least one transcript, totalling to 59'000 in the final assembly. (D) \texttt  {STAR} alignment statistics. Reads aligned uniquely (blue), multiply (red), and non-mapped (gray) are shown overlaid, and grouped per triplicate according to their biological sample. Triplicates are indicated by hue opacity. Notice the logarithmic scale. (E) \texttt  {FASTQC} Reported Quality-pre-base of all \texttt  {FASTQ} files (overlaid). Average read quality per base was 36.7, which remained very stable for all sequencing datasets and over the entire read length. \relax }}{3}{figure.caption.1}}
\providecommand*\caption@xref[2]{\@setref\relax\@undefined{#1}}
\newlabel{Fig:stats}{{1}{3}{Summary overview of Reads Quality, Mapping and Assembly. (A) \texttt {STRINGTIE} assembly overview. On average around 100'000 distinct transcripts were assembled for each biological sample separately with around twice as many in the merged total assembly. Between 12'000 and 15'000 transcripts were not annotated, totalling in some 28'000 potentially novel transcripts in the total merged assembly. (B) Overview of Transcript representation. Around 11\% of transcripts were single exon entries, whereas 89\% were represented by two or more exons. (C) Overview of annotated genes in the assembly. On average 20'000 distinct genes were found with at least one transcript, totalling to 59'000 in the final assembly. (D) \texttt {STAR} alignment statistics. Reads aligned uniquely (blue), multiply (red), and non-mapped (gray) are shown overlaid, and grouped per triplicate according to their biological sample. Triplicates are indicated by hue opacity. Notice the logarithmic scale. (E) \texttt {FASTQC} Reported Quality-pre-base of all \texttt {FASTQ} files (overlaid). Average read quality per base was 36.7, which remained very stable for all sequencing datasets and over the entire read length. \relax }{figure.caption.1}{}}
\@writefile{toc}{\defcounter {refsection}{0}\relax }\@writefile{toc}{\contentsline {section}{\numberline {3}Results}{3}{section.3}}
\@writefile{toc}{\defcounter {refsection}{0}\relax }\@writefile{toc}{\contentsline {subsection}{\numberline {3.1}Read Quality, Mapping, and Assembly}{3}{subsection.3.1}}
\@writefile{toc}{\defcounter {refsection}{0}\relax }\@writefile{toc}{\contentsline {subsection}{\numberline {3.2}Quantification}{3}{subsection.3.2}}
\newlabel{Sec:Quant}{{3.2}{3}{Quantification}{subsection.3.2}{}}
\@writefile{lof}{\defcounter {refsection}{0}\relax }\@writefile{lof}{\contentsline {figure}{\numberline {2}{\ignorespaces  Differentially expressed transcripts. Gray markers indicate individual transcripts. Red markers highlight transcripts classified as differentially expressed based on criteria $q < 0.01$ ($q = $q-value, or adjusted p-value) and Fold-Change $> 1$ (in either direction). Blue markers highlight transcripts that were detected by both methods. Note that this does not indicate that both methods agree on their classification for a given transcript as differentially expressed, or not. Shown are the results from the comparison of Knockdown (KD) \textit  {versus} Control (CTR) of each cell line separately for each analysis method (\texttt  {sleuth} and \texttt  {DESeq2}). (A-C) Results from \texttt  {sleuth} analysis using both LRT and WT. Plotted are $\beta $-value, which is \texttt  {sleuth}'s analogue of $log_2$(Fold Change), against $-log_{10}$(q-value) from \texttt  {sleuth}'s WT, while coloration is done based on the more reliable q-value from \texttt  {sleuth}'s LRT. (D-F) Results from \texttt  {DESeq2} analysis using WT. Plotted are $log_2$(Fold-Change) against against $-log_{10}$(adjusted p-value). (G) Overlaps between analysis results. Shown are the number of transcript entries shared between two datasets. (H) Overlaps between transcript subsets declared as differentially expressed by both \texttt  {sleuth} and \texttt  {DESeq2}. The amount of overlap, i.e. the number of transcripts shared between two sets, is indicated by color-gradient where a deeper hue indicates a greater number of shared transcripts. \relax }}{4}{figure.caption.2}}
\newlabel{Fig:volcano}{{2}{4}{Differentially expressed transcripts. Gray markers indicate individual transcripts. Red markers highlight transcripts classified as differentially expressed based on criteria $q < 0.01$ ($q = $q-value, or adjusted p-value) and Fold-Change $> 1$ (in either direction). Blue markers highlight transcripts that were detected by both methods. Note that this does not indicate that both methods agree on their classification for a given transcript as differentially expressed, or not. Shown are the results from the comparison of Knockdown (KD) \textit {versus} Control (CTR) of each cell line separately for each analysis method (\texttt {sleuth} and \texttt {DESeq2}). (A-C) Results from \texttt {sleuth} analysis using both LRT and WT. Plotted are $\beta $-value, which is \texttt {sleuth}'s analogue of $log_2$(Fold Change), against $-log_{10}$(q-value) from \texttt {sleuth}'s WT, while coloration is done based on the more reliable q-value from \texttt {sleuth}'s LRT. (D-F) Results from \texttt {DESeq2} analysis using WT. Plotted are $log_2$(Fold-Change) against against $-log_{10}$(adjusted p-value). (G) Overlaps between analysis results. Shown are the number of transcript entries shared between two datasets. (H) Overlaps between transcript subsets declared as differentially expressed by both \texttt {sleuth} and \texttt {DESeq2}. The amount of overlap, i.e. the number of transcripts shared between two sets, is indicated by color-gradient where a deeper hue indicates a greater number of shared transcripts. \relax }{figure.caption.2}{}}
\@writefile{toc}{\defcounter {refsection}{0}\relax }\@writefile{toc}{\contentsline {subsection}{\numberline {3.3}Differential Expression}{4}{subsection.3.3}}
\@writefile{lof}{\defcounter {refsection}{0}\relax }\@writefile{lof}{\contentsline {figure}{\numberline {3}{\ignorespaces  lncRNAs and novel transcripts. (A-C) Shown are the results from the comparison of Knockdown (KD) \textit  {versus} Control (CTR) of each cell line separately from \texttt  {sleuth} analysis data. Plotted are $\beta $-value, which is \texttt  {sleuth}'s analogue of $log_2$(Fold Change), against $-log_{10}$(q-value) from \texttt  {sleuth}'s WT, while coloration is done based on the more reliable q-value from \texttt  {sleuth}'s LRT. (D-F) Novel transcripts within the \texttt  {DESeq2} analysis dataset. Plotted are $log_2$(Fold-Change) against against $-log_{10}$(adjusted p-value). Please note that the legend annotations are strictly sequential. Hence, lower entries represent subsets of the ones above. \relax }}{5}{figure.caption.3}}
\newlabel{Fig:lncRNA_novels1}{{3}{5}{lncRNAs and novel transcripts. (A-C) Shown are the results from the comparison of Knockdown (KD) \textit {versus} Control (CTR) of each cell line separately from \texttt {sleuth} analysis data. Plotted are $\beta $-value, which is \texttt {sleuth}'s analogue of $log_2$(Fold Change), against $-log_{10}$(q-value) from \texttt {sleuth}'s WT, while coloration is done based on the more reliable q-value from \texttt {sleuth}'s LRT. (D-F) Novel transcripts within the \texttt {DESeq2} analysis dataset. Plotted are $log_2$(Fold-Change) against against $-log_{10}$(adjusted p-value). Please note that the legend annotations are strictly sequential. Hence, lower entries represent subsets of the ones above. \relax }{figure.caption.3}{}}
\@writefile{lof}{\defcounter {refsection}{0}\relax }\@writefile{lof}{\contentsline {figure}{\numberline {4}{\ignorespaces  Novel transcripts. (A) Coding potential of novel transcripts, predicted by \texttt  {CPAT}. Shown are the number of transcripts whose best scoring ORF received a coding probability $p$ of over 90\%, between 90\% and 10\%, and below 10\%. (B-C) Cumulative alignment scores for TSS (B) and polyAS (C) within novel transcripts. Plotted are the mean alignment score within the effective feature range ${\alpha _{eff}}$ (0-600 for TSS, $(l-600)$-$l$ for polyA, where $l$ is the total length of the transcript), against the total mean alignment score $\mathaccent "7016\relax {\alpha }$ (from 0-$l$). Highlighted in red are transcripts whose ${\alpha _{eff}} > s \cdot \mathaccent "7016\relax {\alpha }$, and in blue ${\alpha _{eff}} < s^{-1} \cdot \mathaccent "7016\relax {\alpha }$, where $s = 1.5$ is a threshold for the ${\alpha _{eff}}$-fold change. (D-E) Random sample of alignment scores for both TSS (D) and polyA (E) over transcript sequences. A black line denotes the start of the actual transcript, while a red/blue line denotes the end of the actual transcript (everything outside is the 500bp buffer). Cumulative alignment scores are indicated by color-gradient where more intense hue indicates higher alignment values clustered around a given position. \relax }}{5}{figure.caption.4}}
\newlabel{Fig:novels}{{4}{5}{Novel transcripts. (A) Coding potential of novel transcripts, predicted by \texttt {CPAT}. Shown are the number of transcripts whose best scoring ORF received a coding probability $p$ of over 90\%, between 90\% and 10\%, and below 10\%. (B-C) Cumulative alignment scores for TSS (B) and polyAS (C) within novel transcripts. Plotted are the mean alignment score within the effective feature range $\widebar {\alpha _{eff}}$ (0-600 for TSS, $(l-600)$-$l$ for polyA, where $l$ is the total length of the transcript), against the total mean alignment score $\bar {\alpha }$ (from 0-$l$). Highlighted in red are transcripts whose $\widebar {\alpha _{eff}} > s \cdot \bar {\alpha }$, and in blue $\widebar {\alpha _{eff}} < s^{-1} \cdot \bar {\alpha }$, where $s = 1.5$ is a threshold for the $\widebar {\alpha _{eff}}$-fold change. (D-E) Random sample of alignment scores for both TSS (D) and polyA (E) over transcript sequences. A black line denotes the start of the actual transcript, while a red/blue line denotes the end of the actual transcript (everything outside is the 500bp buffer). Cumulative alignment scores are indicated by color-gradient where more intense hue indicates higher alignment values clustered around a given position. \relax }{figure.caption.4}{}}
\@writefile{toc}{\defcounter {refsection}{0}\relax }\@writefile{toc}{\contentsline {subsection}{\numberline {3.4}lncRNAs}{6}{subsection.3.4}}
\@writefile{toc}{\defcounter {refsection}{0}\relax }\@writefile{toc}{\contentsline {subsection}{\numberline {3.5}Novel Transcripts}{6}{subsection.3.5}}
\@writefile{toc}{\defcounter {refsection}{0}\relax }\@writefile{toc}{\contentsline {section}{\numberline {4}Conclusion}{7}{section.4}}
\abx@aux@refcontextdefaultsdone
\abx@aux@defaultrefcontext{0}{refTSS}{nty/global//global/global}
\abx@aux@defaultrefcontext{0}{deseq2}{nty/global//global/global}
\abx@aux@defaultrefcontext{0}{HTSEQ}{nty/global//global/global}
\abx@aux@defaultrefcontext{0}{fastqc}{nty/global//global/global}
\abx@aux@defaultrefcontext{0}{lncrna_cancers2}{nty/global//global/global}
\abx@aux@defaultrefcontext{0}{KALLISTO}{nty/global//global/global}
\abx@aux@defaultrefcontext{0}{sleuth}{nty/global//global/global}
\abx@aux@defaultrefcontext{0}{lactate_metastasis}{nty/global//global/global}
\abx@aux@defaultrefcontext{0}{warburg}{nty/global//global/global}
\abx@aux@defaultrefcontext{0}{STAR}{nty/global//global/global}
\abx@aux@defaultrefcontext{0}{lactate_therapeutics}{nty/global//global/global}
\abx@aux@defaultrefcontext{0}{MULTIQC}{nty/global//global/global}
\abx@aux@defaultrefcontext{0}{lactate_against_tcells2}{nty/global//global/global}
\abx@aux@defaultrefcontext{0}{polyAref}{nty/global//global/global}
\abx@aux@defaultrefcontext{0}{ldhb_exosome_lncrnas}{nty/global//global/global}
\abx@aux@defaultrefcontext{0}{lactate_cancer_review1}{nty/global//global/global}
\abx@aux@defaultrefcontext{0}{lncrna_cancers1}{nty/global//global/global}
\abx@aux@defaultrefcontext{0}{STRINGTIE}{nty/global//global/global}
\abx@aux@defaultrefcontext{0}{lactate_tumor_inflammation}{nty/global//global/global}
\abx@aux@defaultrefcontext{0}{ldhb_malat_lncrna}{nty/global//global/global}
\abx@aux@defaultrefcontext{0}{LDH_apoptosis_review}{nty/global//global/global}
\abx@aux@defaultrefcontext{0}{CPAT}{nty/global//global/global}
\global\mtcsecondpartfalse
\newlabel{LastPage}{{}{8}{}{page.8}{}}
\xdef\lastpage@lastpage{8}
\xdef\lastpage@lastpageHy{8}
